[
  {
    "Created": "12:54:35",
    "Start": "01:00:18",
    "End": "01:02:40",
    "Items": [
      {
        "Category": "Soda",
        "Name": "Cola Light",
        "Amount": 15,
        "Volume": 25,
        "Alcohol": 0
      },
      {
        "Category": "Soda",
        "Name": "Cola",
        "Amount": 1,
        "Volume": 25,
        "Alcohol": 0
      }
    ],
    "Team": "Team A",
    "Table": 1,
    "User": "Player 1"
  },
  {
    "Created": "11:29:50",
    "Start": "11:35:11",
    "End": "11:35:59",
    "Items": [
      {
        "Category": "Alcohol",
        "Name": "Red Wine",
        "Amount": 1,
        "Volume": 20,
        "Alcohol": 0.1
      },
      {
        "Category": "Soda",
        "Name": "Cola",
        "Amount": 2,
        "Volume": 25,
        "Alcohol": 0
      },
      {
        "Category": "Alcohol",
        "Name": "Stella",
        "Amount": 15,
        "Volume": 25,
        "Alcohol": 0.06
      }
    ],
    "Team": "Team A",
    "Table": 1,
    "User": "Hans"
  },
  {
    "Created": "01:15:58",
    "Start": "01:23:21",
    "End": "01:23:37",
    "Items": [
      {
        "Category": "Alcohol",
        "Name": "Red Wine",
        "Amount": 1,
        "Volume": 20,
        "Alcohol": 0.1
      },
      {
        "Category": "Soda",
        "Name": "Cola",
        "Amount": 1,
        "Volume": 25,
        "Alcohol": 0
      }
    ],
    "Team": "Team A",
    "Table": 1,
    "User": "Hans"
  },
  {
    "Created": "02:50:38",
    "Start": "02:56:21",
    "End": "02:56:39",
    "Items": [
      {
        "Category": "Alcohol",
        "Name": "Duvel",
        "Amount": 1,
        "Volume": 33,
        "Alcohol": 0.11
      },
      {
        "Category": "Alcohol",
        "Name": "Stella",
        "Amount": 3,
        "Volume": 25,
        "Alcohol": 0.06
      },
      {
        "Category": "Alcohol",
        "Name": "Wite Wine",
        "Amount": 1,
        "Volume": 20,
        "Alcohol": 0.1
      }
    ],
    "Team": "Team A",
    "Table": 1,
    "User": "Player 1"
  },
  {
    "Created": "03:26:39",
    "Start": "03:29:52",
    "End": "03:32:40",
    "Items": [
      {
        "Category": "Alcohol",
        "Name": "Red Wine",
        "Amount": 1,
        "Volume": 20,
        "Alcohol": 0.1
      },
      {
        "Category": "Alcohol",
        "Name": "Stella",
        "Amount": 15,
        "Volume": 25,
        "Alcohol": 0.06
      }
    ],
    "Team": "Team A",
    "Table": 1,
    "User": "Hans"
  },
  {
    "Created": "02:25:27",
    "Start": "02:27:53",
    "End": "02:29:16",
    "Items": [
      {
        "Category": "Soda",
        "Name": "Water",
        "Amount": 1,
        "Volume": 25,
        "Alcohol": 0
      },
      {
        "Category": "Alcohol",
        "Name": "Stella",
        "Amount": 1,
        "Volume": 25,
        "Alcohol": 0.06
      }
    ],
    "Team": "Team A",
    "Table": 1,
    "User": "Player 1"
  },
  {
    "Created": "01:12:05",
    "Start": "01:15:25",
    "End": "01:16:04",
    "Items": [
      {
        "Category": "Soda",
        "Name": "Sparkeling Water",
        "Amount": 2,
        "Volume": 25,
        "Alcohol": 0
      },
      {
        "Category": "Alcohol",
        "Name": "Red Wine",
        "Amount": 1,
        "Volume": 20,
        "Alcohol": 0.1
      },
      {
        "Category": "Soda",
        "Name": "Cola Light",
        "Amount": 15,
        "Volume": 25,
        "Alcohol": 0
      },
      {
        "Category": "Soda",
        "Name": "Water",
        "Amount": 1,
        "Volume": 25,
        "Alcohol": 0
      }
    ],
    "Team": "Team A",
    "Table": 1,
    "User": "Hans"
  },
  {
    "Created": "10:42:06",
    "Start": "10:43:28",
    "End": "10:45:17",
    "Items": [
      {
        "Category": "Alcohol",
        "Name": "Wite Wine",
        "Amount": 1,
        "Volume": 20,
        "Alcohol": 0.1
      }
    ],
    "Team": "Team A",
    "Table": 1,
    "User": "Player 1"
  },
  {
    "Created": "04:03:30",
    "Start": "04:05:11",
    "End": "04:07:38",
    "Items": [
      {
        "Category": "Soda",
        "Name": "Cola",
        "Amount": 1,
        "Volume": 25,
        "Alcohol": 0
      },
      {
        "Category": "Soda",
        "Name": "Cola Light",
        "Amount": 1,
        "Volume": 25,
        "Alcohol": 0
      },
      {
        "Category": "Alcohol",
        "Name": "Wite Wine",
        "Amount": 1,
        "Volume": 20,
        "Alcohol": 0.1
      },
      {
        "Category": "Alcohol",
        "Name": "Stella",
        "Amount": 1,
        "Volume": 25,
        "Alcohol": 0.06
      },
      {
        "Category": "Soda",
        "Name": "Sparkeling Water",
        "Amount": 1,
        "Volume": 25,
        "Alcohol": 0
      }
    ],
    "Team": "Team A",
    "Table": 1,
    "User": "Player 1"
  },
  {
    "Created": "11:00:03",
    "Start": "11:09:03",
    "End": "11:11:11",
    "Items": [
      {
        "Category": "Alcohol",
        "Name": "Duvel",
        "Amount": 1,
        "Volume": 33,
        "Alcohol": 0.11
      },
      {
        "Category": "Alcohol",
        "Name": "Red Wine",
        "Amount": 1,
        "Volume": 20,
        "Alcohol": 0.1
      },
      {
        "Category": "Soda",
        "Name": "Cola Light",
        "Amount": 1,
        "Volume": 25,
        "Alcohol": 0
      }
    ],
    "Team": "Team A",
    "Table": 1,
    "User": "Hans"
  },
  {
    "Created": "11:26:30",
    "Start": "11:35:07",
    "End": "11:37:01",
    "Items": [
      {
        "Category": "Soda",
        "Name": "Cola",
        "Amount": 1,
        "Volume": 25,
        "Alcohol": 0
      },
      {
        "Category": "Alcohol",
        "Name": "Wite Wine",
        "Amount": 1,
        "Volume": 20,
        "Alcohol": 0.1
      }
    ],
    "Team": "Team A",
    "Table": 1,
    "User": "Player 1"
  },
  {
    "Created": "01:19:52",
    "Start": "01:29:00",
    "End": "01:29:43",
    "Items": [
      {
        "Category": "Soda",
        "Name": "Cola Light",
        "Amount": 2,
        "Volume": 25,
        "Alcohol": 0
      },
      {
        "Category": "Soda",
        "Name": "Cola",
        "Amount": 1,
        "Volume": 25,
        "Alcohol": 0
      }
    ],
    "Team": "Team B",
    "Table": 1,
    "User": "Player 1"
  },
  {
    "Created": "12:55:36",
    "Start": "12:58:28",
    "End": "12:59:57",
    "Items": [
      {
        "Category": "Soda",
        "Name": "Sparkeling Water",
        "Amount": 2,
        "Volume": 25,
        "Alcohol": 0
      },
      {
        "Category": "Soda",
        "Name": "Water",
        "Amount": 1,
        "Volume": 25,
        "Alcohol": 0
      },
      {
        "Category": "Alcohol",
        "Name": "Stella",
        "Amount": 1,
        "Volume": 25,
        "Alcohol": 0.06
      },
      {
        "Category": "Alcohol",
        "Name": "Red Wine",
        "Amount": 1,
        "Volume": 20,
        "Alcohol": 0.1
      }
    ],
    "Team": "Team A",
    "Table": 1,
    "User": "Player 1"
  },
  {
    "Created": "11:04:46",
    "Start": "11:10:26",
    "End": "11:10:47",
    "Items": [
      {
        "Category": "Alcohol",
        "Name": "Duvel",
        "Amount": 1,
        "Volume": 33,
        "Alcohol": 0.11
      },
      {
        "Category": "Alcohol",
        "Name": "Wite Wine",
        "Amount": 1,
        "Volume": 20,
        "Alcohol": 0.1
      },
      {
        "Category": "Soda",
        "Name": "Water",
        "Amount": 1,
        "Volume": 25,
        "Alcohol": 0
      },
      {
        "Category": "Alcohol",
        "Name": "Stella",
        "Amount": 1,
        "Volume": 25,
        "Alcohol": 0.06
      }
    ],
    "Team": "Team B",
    "Table": 1,
    "User": "Player 1"
  },
  {
    "Created": "01:53:15",
    "Start": "02:01:41",
    "End": "02:03:13",
    "Items": [
      {
        "Category": "Alcohol",
        "Name": "Duvel",
        "Amount": 1,
        "Volume": 33,
        "Alcohol": 0.11
      }
    ],
    "Team": "Team A",
    "Table": 1,
    "User": "Hans"
  },
  {
    "Created": "03:59:27",
    "Start": "04:03:06",
    "End": "04:03:58",
    "Items": [
      {
        "Category": "Soda",
        "Name": "Cola Light",
        "Amount": 1,
        "Volume": 25,
        "Alcohol": 0
      },
      {
        "Category": "Alcohol",
        "Name": "Duvel",
        "Amount": 1,
        "Volume": 33,
        "Alcohol": 0.11
      }
    ],
    "Team": "Team A",
    "Table": 1,
    "User": "Player 1"
  },
  {
    "Created": "02:18:06",
    "Start": "02:27:57",
    "End": "02:30:39",
    "Items": [
      {
        "Category": "Alcohol",
        "Name": "Wite Wine",
        "Amount": 1,
        "Volume": 20,
        "Alcohol": 0.1
      },
      {
        "Category": "Alcohol",
        "Name": "Stella",
        "Amount": 2,
        "Volume": 25,
        "Alcohol": 0.06
      }
    ],
    "Team": "Team A",
    "Table": 1,
    "User": "Hans"
  },
  {
    "Created": "03:26:46",
    "Start": "03:36:44",
    "End": "03:39:35",
    "Items": [
      {
        "Category": "Soda",
        "Name": "Cola Light",
        "Amount": 1,
        "Volume": 25,
        "Alcohol": 0
      },
      {
        "Category": "Alcohol",
        "Name": "Duvel",
        "Amount": 1,
        "Volume": 33,
        "Alcohol": 0.11
      }
    ],
    "Team": "Team B",
    "Table": 1,
    "User": "Player 1"
  },
  {
    "Created": "11:55:16",
    "Start": "12:01:57",
    "End": "12:02:41",
    "Items": [
      {
        "Category": "Alcohol",
        "Name": "Wite Wine",
        "Amount": 1,
        "Volume": 20,
        "Alcohol": 0.1
      }
    ],
    "Team": "Team A",
    "Table": 1,
    "User": "Hans"
  },
  {
    "Created": "01:24:21",
    "Start": "01:26:12",
    "End": "01:28:53",
    "Items": [
      {
        "Category": "Soda",
        "Name": "Cola Light",
        "Amount": 2,
        "Volume": 25,
        "Alcohol": 0
      },
      {
        "Category": "Alcohol",
        "Name": "Red Wine",
        "Amount": 1,
        "Volume": 20,
        "Alcohol": 0.1
      },
      {
        "Category": "Soda",
        "Name": "Cola",
        "Amount": 1,
        "Volume": 25,
        "Alcohol": 0
      },
      {
        "Category": "Soda",
        "Name": "Water",
        "Amount": 1,
        "Volume": 25,
        "Alcohol": 0
      }
    ],
    "Team": "Team C",
    "Table": 1,
    "User": "Hans"
  },
  {
    "Created": "11:10:29",
    "Start": "11:16:37",
    "End": "11:17:17",
    "Items": [
      {
        "Category": "Alcohol",
        "Name": "Duvel",
        "Amount": 2,
        "Volume": 33,
        "Alcohol": 0.11
      },
      {
        "Category": "Soda",
        "Name": "Sparkeling Water",
        "Amount": 1,
        "Volume": 25,
        "Alcohol": 0
      },
      {
        "Category": "Alcohol",
        "Name": "Stella",
        "Amount": 1,
        "Volume": 25,
        "Alcohol": 0.06
      },
      {
        "Category": "Soda",
        "Name": "Cola Light",
        "Amount": 1,
        "Volume": 25,
        "Alcohol": 0
      }
    ],
    "Team": "Team A",
    "Table": 1,
    "User": "Hans"
  },
  {
    "Created": "11:56:57",
    "Start": "12:06:56",
    "End": "12:07:33",
    "Items": [
      {
        "Category": "Soda",
        "Name": "Cola",
        "Amount": 1,
        "Volume": 25,
        "Alcohol": 0
      }
    ],
    "Team": "Team C",
    "Table": 1,
    "User": "Player 1"
  },
  {
    "Created": "03:25:19",
    "Start": "03:30:37",
    "End": "03:31:55",
    "Items": [
      {
        "Category": "Soda",
        "Name": "Sparkeling Water",
        "Amount": 1,
        "Volume": 25,
        "Alcohol": 0
      }
    ],
    "Team": "Team A",
    "Table": 1,
    "User": "Player 1"
  },
  {
    "Created": "03:16:33",
    "Start": "03:26:10",
    "End": "03:27:54",
    "Items": [
      {
        "Category": "Soda",
        "Name": "Sparkeling Water",
        "Amount": 1,
        "Volume": 25,
        "Alcohol": 0
      }
    ],
    "Team": "Team B",
    "Table": 1,
    "User": "Player 1"
  },
  {
    "Created": "10:14:42",
    "Start": "10:21:35",
    "End": "10:24:30",
    "Items": [
      {
        "Category": "Soda",
        "Name": "Cola",
        "Amount": 2,
        "Volume": 25,
        "Alcohol": 0
      },
      {
        "Category": "Alcohol",
        "Name": "Red Wine",
        "Amount": 2,
        "Volume": 20,
        "Alcohol": 0.1
      }
    ],
    "Team": "Team A",
    "Table": 1,
    "User": "Player 1"
  },
  {
    "Created": "01:05:40",
    "Start": "01:06:11",
    "End": "01:07:51",
    "Items": [
      {
        "Category": "Alcohol",
        "Name": "Stella",
        "Amount": 3,
        "Volume": 25,
        "Alcohol": 0.06
      }
    ],
    "Team": "Team A",
    "Table": 1,
    "User": "Hans"
  },
  {
    "Created": "10:23:17",
    "Start": "10:24:07",
    "End": "10:27:01",
    "Items": [
      {
        "Category": "Soda",
        "Name": "Cola Light",
        "Amount": 1,
        "Volume": 25,
        "Alcohol": 0
      },
      {
        "Category": "Alcohol",
        "Name": "Stella",
        "Amount": 1,
        "Volume": 25,
        "Alcohol": 0.06
      }
    ],
    "Team": "Team A",
    "Table": 1,
    "User": "Player 1"
  },
  {
    "Created": "02:58:36",
    "Start": "02:59:57",
    "End": "03:02:27",
    "Items": [
      {
        "Category": "Soda",
        "Name": "Cola Light",
        "Amount": 1,
        "Volume": 25,
        "Alcohol": 0
      },
      {
        "Category": "Alcohol",
        "Name": "Stella",
        "Amount": 1,
        "Volume": 25,
        "Alcohol": 0.06
      },
      {
        "Category": "Soda",
        "Name": "Cola",
        "Amount": 1,
        "Volume": 25,
        "Alcohol": 0
      }
    ],
    "Team": "Team A",
    "Table": 1,
    "User": "Player 1"
  },
  {
    "Created": "10:31:44",
    "Start": "10:40:30",
    "End": "10:41:35",
    "Items": [
      {
        "Category": "Soda",
        "Name": "Cola",
        "Amount": 1,
        "Volume": 25,
        "Alcohol": 0
      },
      {
        "Category": "Alcohol",
        "Name": "Red Wine",
        "Amount": 1,
        "Volume": 20,
        "Alcohol": 0.1
      },
      {
        "Category": "Soda",
        "Name": "Sparkeling Water",
        "Amount": 1,
        "Volume": 25,
        "Alcohol": 0
      },
      {
        "Category": "Alcohol",
        "Name": "Stella",
        "Amount": 2,
        "Volume": 25,
        "Alcohol": 0.06
      }
    ],
    "Team": "Team A",
    "Table": 1,
    "User": "Player 1"
  },
  {
    "Created": "02:02:04",
    "Start": "02:10:49",
    "End": "02:10:51",
    "Items": [
      {
        "Category": "Soda",
        "Name": "Sparkeling Water",
        "Amount": 1,
        "Volume": 25,
        "Alcohol": 0
      },
      {
        "Category": "Alcohol",
        "Name": "Wite Wine",
        "Amount": 2,
        "Volume": 20,
        "Alcohol": 0.1
      },
      {
        "Category": "Alcohol",
        "Name": "Red Wine",
        "Amount": 1,
        "Volume": 20,
        "Alcohol": 0.1
      },
      {
        "Category": "Alcohol",
        "Name": "Duvel",
        "Amount": 1,
        "Volume": 33,
        "Alcohol": 0.11
      }
    ],
    "Team": "Team A",
    "Table": 1,
    "User": "Hans"
  },
  {
    "Created": "11:57:31",
    "Start": "12:05:08",
    "End": "12:08:04",
    "Items": [
      {
        "Category": "Soda",
        "Name": "Cola",
        "Amount": 2,
        "Volume": 25,
        "Alcohol": 0
      },
      {
        "Category": "Soda",
        "Name": "Cola Light",
        "Amount": 1,
        "Volume": 25,
        "Alcohol": 0
      }
    ],
    "Team": "Team A",
    "Table": 1,
    "User": "Player 1"
  },
  {
    "Created": "12:42:58",
    "Start": "12:45:00",
    "End": "12:45:41",
    "Items": [
      {
        "Category": "Alcohol",
        "Name": "Wite Wine",
        "Amount": 1,
        "Volume": 20,
        "Alcohol": 0.1
      },
      {
        "Category": "Soda",
        "Name": "Water",
        "Amount": 2,
        "Volume": 25,
        "Alcohol": 0
      },
      {
        "Category": "Soda",
        "Name": "Sparkeling Water",
        "Amount": 1,
        "Volume": 25,
        "Alcohol": 0
      }
    ],
    "Team": "Team A",
    "Table": 1,
    "User": "Player 1"
  },
  {
    "Created": "03:38:53",
    "Start": "03:41:10",
    "End": "03:43:12",
    "Items": [
      {
        "Category": "Soda",
        "Name": "Cola",
        "Amount": 1,
        "Volume": 25,
        "Alcohol": 0
      },
      {
        "Category": "Soda",
        "Name": "Water",
        "Amount": 1,
        "Volume": 25,
        "Alcohol": 0
      }
    ],
    "Team": "Team A",
    "Table": 1,
    "User": "Hans"
  },
  {
    "Created": "03:43:27",
    "Start": "03:51:45",
    "End": "03:54:00",
    "Items": [
      {
        "Category": "Alcohol",
        "Name": "Stella",
        "Amount": 1,
        "Volume": 25,
        "Alcohol": 0.06
      },
      {
        "Category": "Soda",
        "Name": "Cola Light",
        "Amount": 2,
        "Volume": 25,
        "Alcohol": 0
      },
      {
        "Category": "Alcohol",
        "Name": "Red Wine",
        "Amount": 1,
        "Volume": 20,
        "Alcohol": 0.1
      },
      {
        "Category": "Soda",
        "Name": "Cola",
        "Amount": 1,
        "Volume": 25,
        "Alcohol": 0
      }
    ],
    "Team": "Team A",
    "Table": 1,
    "User": "Hans"
  },
  {
    "Created": "01:20:20",
    "Start": "01:28:42",
    "End": "01:31:00",
    "Items": [
      {
        "Category": "Soda",
        "Name": "Cola Light",
        "Amount": 1,
        "Volume": 25,
        "Alcohol": 0
      },
      {
        "Category": "Soda",
        "Name": "Water",
        "Amount": 1,
        "Volume": 25,
        "Alcohol": 0
      },
      {
        "Category": "Soda",
        "Name": "Cola",
        "Amount": 1,
        "Volume": 25,
        "Alcohol": 0
      }
    ],
    "Team": "Team A",
    "Table": 1,
    "User": "Player 1"
  },
  {
    "Created": "12:01:33",
    "Start": "12:04:21",
    "End": "12:06:38",
    "Items": [
      {
        "Category": "Soda",
        "Name": "Water",
        "Amount": 2,
        "Volume": 25,
        "Alcohol": 0
      },
      {
        "Category": "Alcohol",
        "Name": "Wite Wine",
        "Amount": 1,
        "Volume": 20,
        "Alcohol": 0.1
      },
      {
        "Category": "Soda",
        "Name": "Cola",
        "Amount": 1,
        "Volume": 25,
        "Alcohol": 0
      }
    ],
    "Team": "Team A",
    "Table": 1,
    "User": "Player 1"
  },
  {
    "Created": "12:35:28",
    "Start": "12:43:05",
    "End": "12:44:38",
    "Items": [
      {
        "Category": "Alcohol",
        "Name": "Red Wine",
        "Amount": 1,
        "Volume": 20,
        "Alcohol": 0.1
      },
      {
        "Category": "Soda",
        "Name": "Water",
        "Amount": 1,
        "Volume": 25,
        "Alcohol": 0
      },
      {
        "Category": "Soda",
        "Name": "Cola Light",
        "Amount": 1,
        "Volume": 25,
        "Alcohol": 0
      },
      {
        "Category": "Alcohol",
        "Name": "Stella",
        "Amount": 1,
        "Volume": 25,
        "Alcohol": 0.06
      }
    ],
    "Team": "Team A",
    "Table": 1,
    "User": "Player 1"
  },
  {
    "Created": "12:03:14",
    "Start": "12:07:43",
    "End": "12:08:06",
    "Items": [
      {
        "Category": "Soda",
        "Name": "Cola",
        "Amount": 1,
        "Volume": 25,
        "Alcohol": 0
      },
      {
        "Category": "Alcohol",
        "Name": "Duvel",
        "Amount": 2,
        "Volume": 33,
        "Alcohol": 0.11
      },
      {
        "Category": "Soda",
        "Name": "Cola Light",
        "Amount": 2,
        "Volume": 25,
        "Alcohol": 0
      }
    ],
    "Team": "Team A",
    "Table": 1,
    "User": "Hans"
  },
  {
    "Created": "12:16:42",
    "Start": "12:19:06",
    "End": "12:21:36",
    "Items": [
      {
        "Category": "Soda",
        "Name": "Sparkeling Water",
        "Amount": 1,
        "Volume": 25,
        "Alcohol": 0
      }
    ],
    "Team": "Team A",
    "Table": 1,
    "User": "Hans"
  },
  {
    "Created": "10:33:00",
    "Start": "10:38:21",
    "End": "10:39:48",
    "Items": [
      {
        "Category": "Alcohol",
        "Name": "Wite Wine",
        "Amount": 2,
        "Volume": 20,
        "Alcohol": 0.1
      },
      {
        "Category": "Soda",
        "Name": "Water",
        "Amount": 1,
        "Volume": 25,
        "Alcohol": 0
      },
      {
        "Category": "Alcohol",
        "Name": "Stella",
        "Amount": 1,
        "Volume": 25,
        "Alcohol": 0.06
      }
    ],
    "Team": "Team A",
    "Table": 1,
    "User": "Player 1"
  },
  {
    "Created": "12:46:05",
    "Start": "12:48:01",
    "End": "12:50:42",
    "Items": [
      {
        "Category": "Alcohol",
        "Name": "Stella",
        "Amount": 1,
        "Volume": 25,
        "Alcohol": 0.06
      },
      {
        "Category": "Soda",
        "Name": "Water",
        "Amount": 2,
        "Volume": 25,
        "Alcohol": 0
      },
      {
        "Category": "Alcohol",
        "Name": "Red Wine",
        "Amount": 2,
        "Volume": 20,
        "Alcohol": 0.1
      }
    ],
    "Team": "Team A",
    "Table": 1,
    "User": "Hans"
  },
  {
    "Created": "12:27:48",
    "Start": "12:29:43",
    "End": "12:31:27",
    "Items": [
      {
        "Category": "Soda",
        "Name": "Cola",
        "Amount": 1,
        "Volume": 25,
        "Alcohol": 0
      },
      {
        "Category": "Alcohol",
        "Name": "Wite Wine",
        "Amount": 2,
        "Volume": 20,
        "Alcohol": 0.1
      },
      {
        "Category": "Alcohol",
        "Name": "Red Wine",
        "Amount": 2,
        "Volume": 20,
        "Alcohol": 0.1
      }
    ],
    "Team": "Team A",
    "Table": 1,
    "User": "Player 1"
  },
  {
    "Created": "11:42:33",
    "Start": "11:52:18",
    "End": "11:54:28",
    "Items": [
      {
        "Category": "Soda",
        "Name": "Water",
        "Amount": 1,
        "Volume": 25,
        "Alcohol": 0
      },
      {
        "Category": "Alcohol",
        "Name": "Wite Wine",
        "Amount": 3,
        "Volume": 20,
        "Alcohol": 0.1
      },
      {
        "Category": "Alcohol",
        "Name": "Red Wine",
        "Amount": 1,
        "Volume": 20,
        "Alcohol": 0.1
      }
    ],
    "Team": "Team A",
    "Table": 1,
    "User": "Hans"
  },
  {
    "Created": "03:17:06",
    "Start": "03:24:08",
    "End": "03:26:10",
    "Items": [
      {
        "Category": "Soda",
        "Name": "Cola",
        "Amount": 1,
        "Volume": 25,
        "Alcohol": 0
      },
      {
        "Category": "Soda",
        "Name": "Cola Light",
        "Amount": 1,
        "Volume": 25,
        "Alcohol": 0
      }
    ],
    "Team": "Team A",
    "Table": 1,
    "User": "Player 1"
  },
  {
    "Created": "10:48:27",
    "Start": "10:50:20",
    "End": "10:50:29",
    "Items": [
      {
        "Category": "Soda",
        "Name": "Water",
        "Amount": 1,
        "Volume": 25,
        "Alcohol": 0
      }
    ],
    "Team": "Team A",
    "Table": 1,
    "User": "Player 1"
  },
  {
    "Created": "01:35:09",
    "Start": "01:37:59",
    "End": "01:40:16",
    "Items": [
      {
        "Category": "Alcohol",
        "Name": "Stella",
        "Amount": 1,
        "Volume": 25,
        "Alcohol": 0.06
      },
      {
        "Category": "Soda",
        "Name": "Sparkeling Water",
        "Amount": 1,
        "Volume": 25,
        "Alcohol": 0
      }
    ],
    "Team": "Team A",
    "Table": 1,
    "User": "Player 1"
  },
  {
    "Created": "02:38:05",
    "Start": "02:43:13",
    "End": "02:45:05",
    "Items": [
      {
        "Category": "Alcohol",
        "Name": "Wite Wine",
        "Amount": 1,
        "Volume": 20,
        "Alcohol": 0.1
      }
    ],
    "Team": "Team A",
    "Table": 1,
    "User": "Hans"
  },
  {
    "Created": "01:48:45",
    "Start": "01:54:58",
    "End": "01:55:07",
    "Items": [
      {
        "Category": "Soda",
        "Name": "Cola Light",
        "Amount": 1,
        "Volume": 25,
        "Alcohol": 0
      }
    ],
    "Team": "Team A",
    "Table": 1,
    "User": "Hans"
  },
  {
    "Created": "11:32:29",
    "Start": "11:35:05",
    "End": "11:35:58",
    "Items": [
      {
        "Category": "Soda",
        "Name": "Water",
        "Amount": 2,
        "Volume": 25,
        "Alcohol": 0
      },
      {
        "Category": "Alcohol",
        "Name": "Stella",
        "Amount": 1,
        "Volume": 25,
        "Alcohol": 0.06
      }
    ],
    "Team": "Team A",
    "Table": 1,
    "User": "Player 1"
  },
  {
    "Created": "03:47:14",
    "Start": "03:56:32",
    "End": "03:58:01",
    "Items": [
      {
        "Category": "Soda",
        "Name": "Cola Light",
        "Amount": 1,
        "Volume": 25,
        "Alcohol": 0
      },
      {
        "Category": "Alcohol",
        "Name": "Stella",
        "Amount": 1,
        "Volume": 25,
        "Alcohol": 0.06
      },
      {
        "Category": "Alcohol",
        "Name": "Red Wine",
        "Amount": 1,
        "Volume": 20,
        "Alcohol": 0.1
      }
    ],
    "Team": "Team A",
    "Table": 1,
    "User": "Hans"
  },
  {
    "Created": "12:02:24",
    "Start": "12:04:08",
    "End": "12:04:42",
    "Items": [
      {
        "Category": "Soda",
        "Name": "Sparkeling Water",
        "Amount": 2,
        "Volume": 25,
        "Alcohol": 0
      }
    ],
    "Team": "Team A",
    "Table": 1,
    "User": "Hans"
  },
  {
    "Created": "10:52:25",
    "Start": "10:55:24",
    "End": "10:55:30",
    "Items": [
      {
        "Category": "Alcohol",
        "Name": "Duvel",
        "Amount": 1,
        "Volume": 33,
        "Alcohol": 0.11
      },
      {
        "Category": "Soda",
        "Name": "Water",
        "Amount": 1,
        "Volume": 25,
        "Alcohol": 0
      }
    ],
    "Team": "Team A",
    "Table": 1,
    "User": "Player 1"
  },
  {
    "Created": "10:32:32",
    "Start": "10:36:20",
    "End": "10:38:28",
    "Items": [
      {
        "Category": "Soda",
        "Name": "Sparkeling Water",
        "Amount": 1,
        "Volume": 25,
        "Alcohol": 0
      },
      {
        "Category": "Alcohol",
        "Name": "Duvel",
        "Amount": 1,
        "Volume": 33,
        "Alcohol": 0.11
      }
    ],
    "Team": "Team A",
    "Table": 1,
    "User": "Hans"
  },
  {
    "Created": "01:56:01",
    "Start": "02:01:32",
    "End": "02:03:04",
    "Items": [
      {
        "Category": "Alcohol",
        "Name": "Duvel",
        "Amount": 3,
        "Volume": 33,
        "Alcohol": 0.11
      },
      {
        "Category": "Alcohol",
        "Name": "Red Wine",
        "Amount": 2,
        "Volume": 20,
        "Alcohol": 0.1
      }
    ],
    "Team": "Team A",
    "Table": 1,
    "User": "Hans"
  },
  {
    "Created": "12:26:17",
    "Start": "12:32:04",
    "End": "12:32:29",
    "Items": [
      {
        "Category": "Soda",
        "Name": "Water",
        "Amount": 2,
        "Volume": 25,
        "Alcohol": 0
      },
      {
        "Category": "Alcohol",
        "Name": "Duvel",
        "Amount": 1,
        "Volume": 33,
        "Alcohol": 0.11
      },
      {
        "Category": "Alcohol",
        "Name": "Stella",
        "Amount": 1,
        "Volume": 25,
        "Alcohol": 0.06
      },
      {
        "Category": "Soda",
        "Name": "Sparkeling Water",
        "Amount": 1,
        "Volume": 25,
        "Alcohol": 0
      }
    ],
    "Team": "Team A",
    "Table": 1,
    "User": "Hans"
  },
  {
    "Created": "12:36:08",
    "Start": "12:37:24",
    "End": "12:39:40",
    "Items": [
      {
        "Category": "Soda",
        "Name": "Water",
        "Amount": 1,
        "Volume": 25,
        "Alcohol": 0
      },
      {
        "Category": "Alcohol",
        "Name": "Duvel",
        "Amount": 1,
        "Volume": 33,
        "Alcohol": 0.11
      },
      {
        "Category": "Soda",
        "Name": "Cola",
        "Amount": 1,
        "Volume": 25,
        "Alcohol": 0
      },
      {
        "Category": "Soda",
        "Name": "Cola Light",
        "Amount": 1,
        "Volume": 25,
        "Alcohol": 0
      },
      {
        "Category": "Soda",
        "Name": "Sparkeling Water",
        "Amount": 1,
        "Volume": 25,
        "Alcohol": 0
      }
    ],
    "Team": "Team A",
    "Table": 1,
    "User": "Player 1"
  },
  {
    "Created": "01:19:50",
    "Start": "01:28:39",
    "End": "01:29:35",
    "Items": [
      {
        "Category": "Soda",
        "Name": "Cola Light",
        "Amount": 1,
        "Volume": 25,
        "Alcohol": 0
      },
      {
        "Category": "Alcohol",
        "Name": "Red Wine",
        "Amount": 2,
        "Volume": 20,
        "Alcohol": 0.1
      },
      {
        "Category": "Alcohol",
        "Name": "Duvel",
        "Amount": 1,
        "Volume": 33,
        "Alcohol": 0.11
      },
      {
        "Category": "Soda",
        "Name": "Water",
        "Amount": 1,
        "Volume": 25,
        "Alcohol": 0
      }
    ],
    "Team": "Team A",
    "Table": 1,
    "User": "Player 1"
  },
  {
    "Created": "01:11:16",
    "Start": "01:21:11",
    "End": "01:22:39",
    "Items": [
      {
        "Category": "Alcohol",
        "Name": "Red Wine",
        "Amount": 2,
        "Volume": 20,
        "Alcohol": 0.1
      },
      {
        "Category": "Soda",
        "Name": "Water",
        "Amount": 2,
        "Volume": 25,
        "Alcohol": 0
      }
    ],
    "Team": "Team A",
    "Table": 1,
    "User": "Hans"
  },
  {
    "Created": "11:29:05",
    "Start": "11:31:19",
    "End": "11:32:57",
    "Items": [
      {
        "Category": "Soda",
        "Name": "Water",
        "Amount": 2,
        "Volume": 25,
        "Alcohol": 0
      },
      {
        "Category": "Alcohol",
        "Name": "Wite Wine",
        "Amount": 1,
        "Volume": 20,
        "Alcohol": 0.1
      },
      {
        "Category": "Alcohol",
        "Name": "Red Wine",
        "Amount": 1,
        "Volume": 20,
        "Alcohol": 0.1
      },
      {
        "Category": "Alcohol",
        "Name": "Stella",
        "Amount": 1,
        "Volume": 25,
        "Alcohol": 0.06
      }
    ],
    "Team": "Team A",
    "Table": 1,
    "User": "Player 1"
  },
  {
    "Created": "11:20:39",
    "Start": "11:23:18",
    "End": "11:25:24",
    "Items": [
      {
        "Category": "Alcohol",
        "Name": "Stella",
        "Amount": 1,
        "Volume": 25,
        "Alcohol": 0.06
      },
      {
        "Category": "Alcohol",
        "Name": "Duvel",
        "Amount": 1,
        "Volume": 33,
        "Alcohol": 0.11
      }
    ],
    "Team": "Team A",
    "Table": 1,
    "User": "Hans"
  },
  {
    "Created": "01:21:09",
    "Start": "01:24:22",
    "End": "01:25:35",
    "Items": [
      {
        "Category": "Alcohol",
        "Name": "Duvel",
        "Amount": 1,
        "Volume": 33,
        "Alcohol": 0.11
      },
      {
        "Category": "Soda",
        "Name": "Cola Light",
        "Amount": 1,
        "Volume": 25,
        "Alcohol": 0
      },
      {
        "Category": "Alcohol",
        "Name": "Wite Wine",
        "Amount": 1,
        "Volume": 20,
        "Alcohol": 0.1
      },
      {
        "Category": "Soda",
        "Name": "Water",
        "Amount": 1,
        "Volume": 25,
        "Alcohol": 0
      }
    ],
    "Team": "Team A",
    "Table": 1,
    "User": "Player 1"
  },
  {
    "Created": "02:25:06",
    "Start": "02:31:25",
    "End": "02:34:10",
    "Items": [
      {
        "Category": "Alcohol",
        "Name": "Wite Wine",
        "Amount": 1,
        "Volume": 20,
        "Alcohol": 0.1
      },
      {
        "Category": "Alcohol",
        "Name": "Duvel",
        "Amount": 1,
        "Volume": 33,
        "Alcohol": 0.11
      },
      {
        "Category": "Soda",
        "Name": "Cola Light",
        "Amount": 1,
        "Volume": 25,
        "Alcohol": 0
      },
      {
        "Category": "Soda",
        "Name": "Sparkeling Water",
        "Amount": 1,
        "Volume": 25,
        "Alcohol": 0
      },
      {
        "Category": "Alcohol",
        "Name": "Stella",
        "Amount": 1,
        "Volume": 25,
        "Alcohol": 0.06
      }
    ],
    "Team": "Team A",
    "Table": 1,
    "User": "Player 1"
  },
  {
    "Created": "11:48:06",
    "Start": "11:52:57",
    "End": "11:55:12",
    "Items": [
      {
        "Category": "Soda",
        "Name": "Water",
        "Amount": 1,
        "Volume": 25,
        "Alcohol": 0
      },
      {
        "Category": "Alcohol",
        "Name": "Wite Wine",
        "Amount": 1,
        "Volume": 20,
        "Alcohol": 0.1
      },
      {
        "Category": "Soda",
        "Name": "Cola Light",
        "Amount": 1,
        "Volume": 25,
        "Alcohol": 0
      },
      {
        "Category": "Alcohol",
        "Name": "Stella",
        "Amount": 1,
        "Volume": 25,
        "Alcohol": 0.06
      },
      {
        "Category": "Soda",
        "Name": "Sparkeling Water",
        "Amount": 1,
        "Volume": 25,
        "Alcohol": 0
      }
    ],
    "Team": "Team A",
    "Table": 1,
    "User": "Hans"
  },
  {
    "Created": "11:13:07",
    "Start": "11:20:50",
    "End": "11:20:55",
    "Items": [
      {
        "Category": "Alcohol",
        "Name": "Red Wine",
        "Amount": 2,
        "Volume": 20,
        "Alcohol": 0.1
      }
    ],
    "Team": "Team A",
    "Table": 1,
    "User": "Player 1"
  },
  {
    "Created": "01:45:19",
    "Start": "01:54:19",
    "End": "01:57:00",
    "Items": [
      {
        "Category": "Soda",
        "Name": "Sparkeling Water",
        "Amount": 2,
        "Volume": 25,
        "Alcohol": 0
      },
      {
        "Category": "Soda",
        "Name": "Cola",
        "Amount": 1,
        "Volume": 25,
        "Alcohol": 0
      }
    ],
    "Team": "Team A",
    "Table": 1,
    "User": "Hans"
  },
  {
    "Created": "03:37:55",
    "Start": "03:43:51",
    "End": "03:46:26",
    "Items": [
      {
        "Category": "Alcohol",
        "Name": "Red Wine",
        "Amount": 1,
        "Volume": 20,
        "Alcohol": 0.1
      },
      {
        "Category": "Alcohol",
        "Name": "Wite Wine",
        "Amount": 1,
        "Volume": 20,
        "Alcohol": 0.1
      }
    ],
    "Team": "Team A",
    "Table": 1,
    "User": "Player 1"
  },
  {
    "Created": "02:42:37",
    "Start": "02:48:31",
    "End": "02:48:33",
    "Items": [
      {
        "Category": "Alcohol",
        "Name": "Wite Wine",
        "Amount": 2,
        "Volume": 20,
        "Alcohol": 0.1
      },
      {
        "Category": "Alcohol",
        "Name": "Stella",
        "Amount": 1,
        "Volume": 25,
        "Alcohol": 0.06
      },
      {
        "Category": "Soda",
        "Name": "Cola",
        "Amount": 1,
        "Volume": 25,
        "Alcohol": 0
      }
    ],
    "Team": "Team A",
    "Table": 1,
    "User": "Player 1"
  },
  {
    "Created": "03:44:44",
    "Start": "03:50:33",
    "End": "03:52:57",
    "Items": [
      {
        "Category": "Alcohol",
        "Name": "Duvel",
        "Amount": 1,
        "Volume": 33,
        "Alcohol": 0.11
      }
    ],
    "Team": "Team A",
    "Table": 1,
    "User": "Hans"
  },
  {
    "Created": "01:55:26",
    "Start": "02:02:22",
    "End": "02:03:12",
    "Items": [
      {
        "Category": "Alcohol",
        "Name": "Stella",
        "Amount": 1,
        "Volume": 25,
        "Alcohol": 0.06
      }
    ],
    "Team": "Team A",
    "Table": 1,
    "User": "Hans"
  },
  {
    "Created": "01:18:05",
    "Start": "01:18:26",
    "End": "01:20:02",
    "Items": [
      {
        "Category": "Soda",
        "Name": "Sparkeling Water",
        "Amount": 1,
        "Volume": 25,
        "Alcohol": 0
      }
    ],
    "Team": "Team A",
    "Table": 1,
    "User": "Player 1"
  },
  {
    "Created": "01:10:55",
    "Start": "01:18:55",
    "End": "01:20:22",
    "Items": [
      {
        "Category": "Soda",
        "Name": "Sparkeling Water",
        "Amount": 1,
        "Volume": 25,
        "Alcohol": 0
      }
    ],
    "Team": "Team A",
    "Table": 1,
    "User": "Hans"
  },
  {
    "Created": "12:14:49",
    "Start": "12:15:37",
    "End": "12:16:16",
    "Items": [
      {
        "Category": "Soda",
        "Name": "Cola Light",
        "Amount": 1,
        "Volume": 25,
        "Alcohol": 0
      },
      {
        "Category": "Soda",
        "Name": "Cola",
        "Amount": 1,
        "Volume": 25,
        "Alcohol": 0
      },
      {
        "Category": "Soda",
        "Name": "Water",
        "Amount": 1,
        "Volume": 25,
        "Alcohol": 0
      },
      {
        "Category": "Soda",
        "Name": "Sparkeling Water",
        "Amount": 1,
        "Volume": 25,
        "Alcohol": 0
      },
      {
        "Category": "Alcohol",
        "Name": "Red Wine",
        "Amount": 1,
        "Volume": 20,
        "Alcohol": 0.1
      }
    ],
    "Team": "Team A",
    "Table": 1,
    "User": "Hans"
  },
  {
    "Created": "12:29:54",
    "Start": "12:38:24",
    "End": "12:41:07",
    "Items": [
      {
        "Category": "Soda",
        "Name": "Sparkeling Water",
        "Amount": 1,
        "Volume": 25,
        "Alcohol": 0
      },
      {
        "Category": "Alcohol",
        "Name": "Wite Wine",
        "Amount": 1,
        "Volume": 20,
        "Alcohol": 0.1
      },
      {
        "Category": "Alcohol",
        "Name": "Duvel",
        "Amount": 2,
        "Volume": 33,
        "Alcohol": 0.11
      }
    ],
    "Team": "Team A",
    "Table": 1,
    "User": "Hans"
  },
  {
    "Created": "12:28:08",
    "Start": "12:32:21",
    "End": "12:34:29",
    "Items": [
      {
        "Category": "Soda",
        "Name": "Cola",
        "Amount": 2,
        "Volume": 25,
        "Alcohol": 0
      },
      {
        "Category": "Soda",
        "Name": "Sparkeling Water",
        "Amount": 1,
        "Volume": 25,
        "Alcohol": 0
      }
    ],
    "Team": "Team A",
    "Table": 1,
    "User": "Hans"
  },
  {
    "Created": "03:00:06",
    "Start": "03:00:43",
    "End": "03:02:02",
    "Items": [
      {
        "Category": "Alcohol",
        "Name": "Stella",
        "Amount": 1,
        "Volume": 25,
        "Alcohol": 0.06
      }
    ],
    "Team": "Team A",
    "Table": 1,
    "User": "Hans"
  },
  {
    "Created": "01:13:08",
    "Start": "01:13:50",
    "End": "01:14:23",
    "Items": [
      {
        "Category": "Alcohol",
        "Name": "Stella",
        "Amount": 1,
        "Volume": 25,
        "Alcohol": 0.06
      },
      {
        "Category": "Alcohol",
        "Name": "Wite Wine",
        "Amount": 1,
        "Volume": 20,
        "Alcohol": 0.1
      },
      {
        "Category": "Alcohol",
        "Name": "Duvel",
        "Amount": 2,
        "Volume": 33,
        "Alcohol": 0.11
      },
      {
        "Category": "Soda",
        "Name": "Water",
        "Amount": 1,
        "Volume": 25,
        "Alcohol": 0
      }
    ],
    "Team": "Team A",
    "Table": 1,
    "User": "Hans"
  },
  {
    "Created": "03:31:29",
    "Start": "03:31:42",
    "End": "03:32:36",
    "Items": [
      {
        "Category": "Soda",
        "Name": "Cola Light",
        "Amount": 1,
        "Volume": 25,
        "Alcohol": 0
      },
      {
        "Category": "Alcohol",
        "Name": "Red Wine",
        "Amount": 1,
        "Volume": 20,
        "Alcohol": 0.1
      }
    ],
    "Team": "Team A",
    "Table": 1,
    "User": "Player 1"
  },
  {
    "Created": "10:52:19",
    "Start": "10:59:42",
    "End": "11:00:45",
    "Items": [
      {
        "Category": "Alcohol",
        "Name": "Wite Wine",
        "Amount": 1,
        "Volume": 20,
        "Alcohol": 0.1
      },
      {
        "Category": "Soda",
        "Name": "Water",
        "Amount": 1,
        "Volume": 25,
        "Alcohol": 0
      },
      {
        "Category": "Soda",
        "Name": "Cola Light",
        "Amount": 2,
        "Volume": 25,
        "Alcohol": 0
      },
      {
        "Category": "Soda",
        "Name": "Cola",
        "Amount": 1,
        "Volume": 25,
        "Alcohol": 0
      }
    ],
    "Team": "Team A",
    "Table": 1,
    "User": "Player 1"
  },
  {
    "Created": "11:52:46",
    "Start": "11:54:30",
    "End": "11:57:12",
    "Items": [
      {
        "Category": "Soda",
        "Name": "Sparkeling Water",
        "Amount": 1,
        "Volume": 25,
        "Alcohol": 0
      },
      {
        "Category": "Soda",
        "Name": "Water",
        "Amount": 1,
        "Volume": 25,
        "Alcohol": 0
      },
      {
        "Category": "Soda",
        "Name": "Cola Light",
        "Amount": 2,
        "Volume": 25,
        "Alcohol": 0
      },
      {
        "Category": "Soda",
        "Name": "Cola",
        "Amount": 1,
        "Volume": 25,
        "Alcohol": 0
      }
    ],
    "Team": "Team A",
    "Table": 1,
    "User": "Hans"
  },
  {
    "Created": "01:57:16",
    "Start": "02:05:51",
    "End": "02:05:58",
    "Items": [
      {
        "Category": "Soda",
        "Name": "Sparkeling Water",
        "Amount": 1,
        "Volume": 25,
        "Alcohol": 0
      }
    ],
    "Team": "Team A",
    "Table": 1,
    "User": "Player 1"
  },
  {
    "Created": "11:03:11",
    "Start": "11:04:24",
    "End": "11:05:25",
    "Items": [
      {
        "Category": "Alcohol",
        "Name": "Red Wine",
        "Amount": 2,
        "Volume": 20,
        "Alcohol": 0.1
      },
      {
        "Category": "Soda",
        "Name": "Cola Light",
        "Amount": 1,
        "Volume": 25,
        "Alcohol": 0
      }
    ],
    "Team": "Team A",
    "Table": 1,
    "User": "Hans"
  },
  {
    "Created": "11:58:45",
    "Start": "12:02:39",
    "End": "12:03:00",
    "Items": [
      {
        "Category": "Soda",
        "Name": "Cola Light",
        "Amount": 1,
        "Volume": 25,
        "Alcohol": 0
      },
      {
        "Category": "Alcohol",
        "Name": "Red Wine",
        "Amount": 1,
        "Volume": 20,
        "Alcohol": 0.1
      },
      {
        "Category": "Soda",
        "Name": "Sparkeling Water",
        "Amount": 1,
        "Volume": 25,
        "Alcohol": 0
      },
      {
        "Category": "Alcohol",
        "Name": "Stella",
        "Amount": 1,
        "Volume": 25,
        "Alcohol": 0.06
      }
    ],
    "Team": "Team A",
    "Table": 1,
    "User": "Player 1"
  },
  {
    "Created": "04:08:57",
    "Start": "04:14:51",
    "End": "04:14:54",
    "Items": [
      {
        "Category": "Alcohol",
        "Name": "Wite Wine",
        "Amount": 1,
        "Volume": 20,
        "Alcohol": 0.1
      },
      {
        "Category": "Soda",
        "Name": "Sparkeling Water",
        "Amount": 2,
        "Volume": 25,
        "Alcohol": 0
      }
    ],
    "Team": "Team A",
    "Table": 1,
    "User": "Hans"
  },
  {
    "Created": "12:04:44",
    "Start": "12:05:02",
    "End": "12:05:29",
    "Items": [
      {
        "Category": "Soda",
        "Name": "Water",
        "Amount": 2,
        "Volume": 25,
        "Alcohol": 0
      },
      {
        "Category": "Soda",
        "Name": "Cola",
        "Amount": 1,
        "Volume": 25,
        "Alcohol": 0
      }
    ],
    "Team": "Team A",
    "Table": 1,
    "User": "Player 1"
  },
  {
    "Created": "10:29:21",
    "Start": "10:36:34",
    "End": "10:36:53",
    "Items": [
      {
        "Category": "Soda",
        "Name": "Cola Light",
        "Amount": 1,
        "Volume": 25,
        "Alcohol": 0
      },
      {
        "Category": "Soda",
        "Name": "Water",
        "Amount": 1,
        "Volume": 25,
        "Alcohol": 0
      },
      {
        "Category": "Alcohol",
        "Name": "Wite Wine",
        "Amount": 1,
        "Volume": 20,
        "Alcohol": 0.1
      },
      {
        "Category": "Alcohol",
        "Name": "Stella",
        "Amount": 2,
        "Volume": 25,
        "Alcohol": 0.06
      }
    ],
    "Team": "Team A",
    "Table": 1,
    "User": "Player 1"
  },
  {
    "Created": "01:40:56",
    "Start": "01:46:43",
    "End": "01:48:50",
    "Items": [
      {
        "Category": "Soda",
        "Name": "Cola Light",
        "Amount": 1,
        "Volume": 25,
        "Alcohol": 0
      },
      {
        "Category": "Alcohol",
        "Name": "Stella",
        "Amount": 1,
        "Volume": 25,
        "Alcohol": 0.06
      },
      {
        "Category": "Alcohol",
        "Name": "Red Wine",
        "Amount": 1,
        "Volume": 20,
        "Alcohol": 0.1
      }
    ],
    "Team": "Team A",
    "Table": 1,
    "User": "Player 1"
  },
  {
    "Created": "12:43:38",
    "Start": "12:52:26",
    "End": "12:52:44",
    "Items": [
      {
        "Category": "Soda",
        "Name": "Sparkeling Water",
        "Amount": 2,
        "Volume": 25,
        "Alcohol": 0
      },
      {
        "Category": "Alcohol",
        "Name": "Stella",
        "Amount": 1,
        "Volume": 25,
        "Alcohol": 0.06
      },
      {
        "Category": "Soda",
        "Name": "Cola",
        "Amount": 1,
        "Volume": 25,
        "Alcohol": 0
      }
    ],
    "Team": "Team A",
    "Table": 1,
    "User": "Player 1"
  },
  {
    "Created": "01:23:42",
    "Start": "01:26:16",
    "End": "01:26:37",
    "Items": [
      {
        "Category": "Alcohol",
        "Name": "Duvel",
        "Amount": 1,
        "Volume": 33,
        "Alcohol": 0.11
      },
      {
        "Category": "Soda",
        "Name": "Cola Light",
        "Amount": 1,
        "Volume": 25,
        "Alcohol": 0
      }
    ],
    "Team": "Team A",
    "Table": 1,
    "User": "Hans"
  },
  {
    "Created": "01:27:45",
    "Start": "01:29:48",
    "End": "01:32:44",
    "Items": [
      {
        "Category": "Soda",
        "Name": "Water",
        "Amount": 1,
        "Volume": 25,
        "Alcohol": 0
      },
      {
        "Category": "Alcohol",
        "Name": "Duvel",
        "Amount": 2,
        "Volume": 33,
        "Alcohol": 0.11
      },
      {
        "Category": "Soda",
        "Name": "Cola",
        "Amount": 1,
        "Volume": 25,
        "Alcohol": 0
      },
      {
        "Category": "Alcohol",
        "Name": "Red Wine",
        "Amount": 1,
        "Volume": 20,
        "Alcohol": 0.1
      }
    ],
    "Team": "Team A",
    "Table": 1,
    "User": "Hans"
  },
  {
    "Created": "03:59:47",
    "Start": "04:00:34",
    "End": "04:02:57",
    "Items": [
      {
        "Category": "Alcohol",
        "Name": "Stella",
        "Amount": 1,
        "Volume": 25,
        "Alcohol": 0.06
      },
      {
        "Category": "Soda",
        "Name": "Sparkeling Water",
        "Amount": 1,
        "Volume": 25,
        "Alcohol": 0
      },
      {
        "Category": "Alcohol",
        "Name": "Red Wine",
        "Amount": 1,
        "Volume": 20,
        "Alcohol": 0.1
      }
    ],
    "Team": "Team A",
    "Table": 1,
    "User": "Player 1"
  },
  {
    "Created": "04:04:09",
    "Start": "04:10:38",
    "End": "04:13:32",
    "Items": [
      {
        "Category": "Soda",
        "Name": "Sparkeling Water",
        "Amount": 2,
        "Volume": 25,
        "Alcohol": 0
      },
      {
        "Category": "Alcohol",
        "Name": "Wite Wine",
        "Amount": 1,
        "Volume": 20,
        "Alcohol": 0.1
      },
      {
        "Category": "Alcohol",
        "Name": "Duvel",
        "Amount": 1,
        "Volume": 33,
        "Alcohol": 0.11
      }
    ],
    "Team": "Team A",
    "Table": 1,
    "User": "Player 1"
  },
  {
    "Created": "01:17:50",
    "Start": "01:22:55",
    "End": "01:25:44",
    "Items": [
      {
        "Category": "Soda",
        "Name": "Sparkeling Water",
        "Amount": 1,
        "Volume": 25,
        "Alcohol": 0
      }
    ],
    "Team": "Team A",
    "Table": 1,
    "User": "Hans"
  },
  {
    "Created": "10:21:18",
    "Start": "10:24:49",
    "End": "10:26:31",
    "Items": [
      {
        "Category": "Soda",
        "Name": "Sparkeling Water",
        "Amount": 2,
        "Volume": 25,
        "Alcohol": 0
      },
      {
        "Category": "Alcohol",
        "Name": "Wite Wine",
        "Amount": 1,
        "Volume": 20,
        "Alcohol": 0.1
      },
      {
        "Category": "Soda",
        "Name": "Cola Light",
        "Amount": 1,
        "Volume": 25,
        "Alcohol": 0
      }
    ],
    "Team": "Team A",
    "Table": 1,
    "User": "Hans"
  },
  {
    "Created": "11:20:02",
    "Start": "11:21:33",
    "End": "11:23:06",
    "Items": [
      {
        "Category": "Soda",
        "Name": "Sparkeling Water",
        "Amount": 1,
        "Volume": 25,
        "Alcohol": 0
      },
      {
        "Category": "Alcohol",
        "Name": "Stella",
        "Amount": 1,
        "Volume": 25,
        "Alcohol": 0.06
      },
      {
        "Category": "Soda",
        "Name": "Cola",
        "Amount": 1,
        "Volume": 25,
        "Alcohol": 0
      },
      {
        "Category": "Soda",
        "Name": "Cola Light",
        "Amount": 1,
        "Volume": 25,
        "Alcohol": 0
      }
    ],
    "Team": "Team A",
    "Table": 1,
    "User": "Player 1"
  },
  {
    "Created": "12:47:39",
    "Start": "12:52:30",
    "End": "12:54:57",
    "Items": [
      {
        "Category": "Alcohol",
        "Name": "Stella",
        "Amount": 2,
        "Volume": 25,
        "Alcohol": 0.06
      }
    ],
    "Team": "Team A",
    "Table": 1,
    "User": "Hans"
  },
  {
    "Created": "12:04:39",
    "Start": "12:13:54",
    "End": "12:15:08",
    "Items": [
      {
        "Category": "Alcohol",
        "Name": "Duvel",
        "Amount": 1,
        "Volume": 33,
        "Alcohol": 0.11
      }
    ],
    "Team": "Team A",
    "Table": 1,
    "User": "Hans"
  },
  {
    "Created": "01:50:04",
    "Start": "01:58:55",
    "End": "02:00:16",
    "Items": [
      {
        "Category": "Alcohol",
        "Name": "Wite Wine",
        "Amount": 1,
        "Volume": 20,
        "Alcohol": 0.1
      }
    ],
    "Team": "Team A",
    "Table": 1,
    "User": "Player 1"
  },
  {
    "Created": "03:23:13",
    "Start": "03:23:13",
    "End": "03:23:21",
    "Items": [
      {
        "Category": "Alcohol",
        "Name": "Stella",
        "Amount": 1,
        "Volume": 25,
        "Alcohol": 0.06
      },
      {
        "Category": "Soda",
        "Name": "Water",
        "Amount": 1,
        "Volume": 25,
        "Alcohol": 0
      },
      {
        "Category": "Soda",
        "Name": "Cola",
        "Amount": 1,
        "Volume": 25,
        "Alcohol": 0
      },
      {
        "Category": "Alcohol",
        "Name": "Wite Wine",
        "Amount": 1,
        "Volume": 20,
        "Alcohol": 0.1
      }
    ],
    "Team": "Team A",
    "Table": 1,
    "User": "Hans"
  },
  {
    "Created": "01:25:18",
    "Start": "01:28:30",
    "End": "01:30:58",
    "Items": [
      {
        "Category": "Alcohol",
        "Name": "Wite Wine",
        "Amount": 1,
        "Volume": 20,
        "Alcohol": 0.1
      },
      {
        "Category": "Soda",
        "Name": "Sparkeling Water",
        "Amount": 1,
        "Volume": 25,
        "Alcohol": 0
      }
    ],
    "Team": "Team A",
    "Table": 1,
    "User": "Hans"
  },
  {
    "Created": "12:09:40",
    "Start": "12:10:22",
    "End": "12:12:18",
    "Items": [
      {
        "Category": "Soda",
        "Name": "Water",
        "Amount": 1,
        "Volume": 25,
        "Alcohol": 0
      }
    ],
    "Team": "Team A",
    "Table": 1,
    "User": "Hans"
  }
]